<?xml version="1.0" encoding="utf-8"?>
<!-- Generator: Adobe Illustrator 16.0.0, SVG Export Plug-In . SVG Version: 6.00 Build 0)  -->
<!DOCTYPE svg PUBLIC "-//W3C//DTD SVG 1.1//EN" "http://www.w3.org/Graphics/SVG/1.1/DTD/svg11.dtd">
<svg version="1.1" id="Layer_1" xmlns="http://www.w3.org/2000/svg" xmlns:xlink="http://www.w3.org/1999/xlink" x="0px" y="0px"
	 width="60px" height="44px" viewBox="0 0 60 44" enable-background="new 0 0 60 44" xml:space="preserve">
<g>
	<g>
		<path fill="#DD0612" d="M7.9,15.5c-0.7,1.4-2.6,2-4.3,1.2C1.8,16,1,14.2,1.7,12.8c0.7-1.4,2.6-2,4.3-1.2
			C7.7,12.3,8.5,14.1,7.9,15.5z"/>
	</g>
	<g>
		<path fill="#DD0612" d="M58.3,31.2c-0.7,1.4-2.6,2-4.3,1.2c-1.7-0.7-2.6-2.5-1.9-3.9c0.7-1.4,2.6-2,4.3-1.2
			C58.2,28,59,29.8,58.3,31.2z"/>
	</g>
	<g>
		<polygon fill="#DD0612" points="5.3,12.5 4.2,15.7 54.7,31.5 55.8,28.3 		"/>
	</g>
</g>
</svg>
