<?xml version="1.0" encoding="utf-8"?>
<!-- Generator: Adobe Illustrator 16.0.0, SVG Export Plug-In . SVG Version: 6.00 Build 0)  -->
<!DOCTYPE svg PUBLIC "-//W3C//DTD SVG 1.1//EN" "http://www.w3.org/Graphics/SVG/1.1/DTD/svg11.dtd">
<svg version="1.1" id="Layer_1" xmlns="http://www.w3.org/2000/svg" xmlns:xlink="http://www.w3.org/1999/xlink" x="0px" y="0px"
	 width="60px" height="44px" viewBox="0 0 60 44" enable-background="new 0 0 60 44" xml:space="preserve">
<g>
	<g>
		<path fill="#DD0612" d="M6.9,20.6c-0.3,1.5-2,2.5-3.9,2.1c-1.8-0.3-3.1-1.8-2.8-3.4c0.3-1.5,2-2.5,3.9-2.1
			C5.9,17.6,7.2,19.1,6.9,20.6z"/>
	</g>
	<g>
		<path fill="#DD0612" d="M59.8,24.6c-0.3,1.5-2,2.5-3.9,2.1c-1.8-0.3-3.1-1.8-2.8-3.4c0.3-1.5,2-2.5,3.9-2.1
			C58.8,21.6,60.1,23.1,59.8,24.6z"/>
	</g>
	<g>
		<polygon fill="#DD0612" points="3.7,18.3 3.4,21.7 56.3,25.7 56.6,22.3 		"/>
	</g>
</g>
</svg>
