<?xml version="1.0" encoding="utf-8"?>
<!-- Generator: Adobe Illustrator 16.0.0, SVG Export Plug-In . SVG Version: 6.00 Build 0)  -->
<!DOCTYPE svg PUBLIC "-//W3C//DTD SVG 1.1//EN" "http://www.w3.org/Graphics/SVG/1.1/DTD/svg11.dtd">
<svg version="1.1" id="Layer_1" xmlns="http://www.w3.org/2000/svg" xmlns:xlink="http://www.w3.org/1999/xlink" x="0px" y="0px"
	 width="60px" height="44px" viewBox="0 0 60 44" enable-background="new 0 0 60 44" xml:space="preserve">
<g>
	<g>
		<path fill="#8FBB1F" d="M13.1,37.8c-1.2-1-3.2-0.7-4.4,0.8C7.5,40,7.5,42,8.7,43c1.2,1,3.2,0.7,4.4-0.8
			C14.4,40.9,14.3,38.9,13.1,37.8z"/>
	</g>
	<g>
		<path fill="#8FBB1F" d="M51.3,1c-1.2-1-3.2-0.7-4.4,0.7c-1.2,1.4-1.2,3.4,0.1,4.5c1.2,1,3.2,0.7,4.4-0.7C52.5,4,52.5,2,51.3,1z"/>
	</g>
	<g>
		
			<rect x="28.2" y="-4.5" transform="matrix(0.6942 0.7197 -0.7197 0.6942 25.0065 -14.8664)" fill="#8FBB1F" width="3.5" height="53.1"/>
	</g>
</g>
</svg>
