<?xml version="1.0" encoding="utf-8"?>
<!-- Generator: Adobe Illustrator 16.0.0, SVG Export Plug-In . SVG Version: 6.00 Build 0)  -->
<!DOCTYPE svg PUBLIC "-//W3C//DTD SVG 1.1//EN" "http://www.w3.org/Graphics/SVG/1.1/DTD/svg11.dtd">
<svg version="1.1" id="Layer_1" xmlns="http://www.w3.org/2000/svg" xmlns:xlink="http://www.w3.org/1999/xlink" x="0px" y="0px"
	 width="60px" height="44px" viewBox="0 0 60 44" enable-background="new 0 0 60 44" xml:space="preserve">
<g>
	<path fill="#8FBB1F" d="M5.5,36.4l-3.3-1.4C3.5,32,16,17.1,32.9,17c13.7-0.1,17.1-4.2,22.3-10.2L57.9,9c-6,7-10.4,11.3-25,11.5
		C17.1,20.6,6.2,34.8,5.5,36.4z"/>
</g>
<g>
	<circle fill="#8FBB1F" cx="3.9" cy="35.7" r="3.4"/>
</g>
<g>
	<circle fill="#8FBB1F" cx="56.6" cy="7.9" r="3.4"/>
</g>
</svg>
